C:\Users\Kevim Such\git\spring-rest-example\SpringRestExample\src\main\java\com\kevim\examples\repository\StoreModelRepository.java
C:\Users\Kevim Such\git\spring-rest-example\SpringRestExample\src\main\java\com\kevim\examples\controllers\MainController.java
C:\Users\Kevim Such\git\spring-rest-example\SpringRestExample\src\main\java\com\kevim\model\CustomerModel.java
C:\Users\Kevim Such\git\spring-rest-example\SpringRestExample\src\main\java\com\kevim\model\ResponseModel.java
C:\Users\Kevim Such\git\spring-rest-example\SpringRestExample\src\main\java\com\kevim\examples\controllers\GreetingController.java
C:\Users\Kevim Such\git\spring-rest-example\SpringRestExample\src\main\java\com\kevim\examples\controllers\ProductController.java
C:\Users\Kevim Such\git\spring-rest-example\SpringRestExample\src\main\java\com\kevim\examples\controllers\PreOrderController.java
C:\Users\Kevim Such\git\spring-rest-example\SpringRestExample\src\main\java\com\kevim\examples\UserRepository.java
C:\Users\Kevim Such\git\spring-rest-example\SpringRestExample\src\main\java\com\kevim\model\ShippingModel.java
C:\Users\Kevim Such\git\spring-rest-example\SpringRestExample\src\main\java\com\kevim\examples\Greeting.java
C:\Users\Kevim Such\git\spring-rest-example\SpringRestExample\src\main\java\com\kevim\model\StoreModel.java
C:\Users\Kevim Such\git\spring-rest-example\SpringRestExample\src\main\java\com\kevim\examples\repository\CargoProductModel.java
C:\Users\Kevim Such\git\spring-rest-example\SpringRestExample\src\main\java\com\kevim\examples\controllers\OrderListController.java
C:\Users\Kevim Such\git\spring-rest-example\SpringRestExample\src\main\java\com\kevim\examples\controllers\CargoController.java
C:\Users\Kevim Such\git\spring-rest-example\SpringRestExample\src\main\java\com\kevim\model\ProductModel.java
C:\Users\Kevim Such\git\spring-rest-example\SpringRestExample\src\main\java\com\kevim\model\PreOrderDTO.java
C:\Users\Kevim Such\git\spring-rest-example\SpringRestExample\src\main\java\com\kevim\examples\repository\ProductModelRepository.java
C:\Users\Kevim Such\git\spring-rest-example\SpringRestExample\src\main\java\com\kevim\model\OrderDTO.java
C:\Users\Kevim Such\git\spring-rest-example\SpringRestExample\src\main\java\com\kevim\examples\repository\UserModelRepository.java
C:\Users\Kevim Such\git\spring-rest-example\SpringRestExample\src\main\java\com\kevim\examples\controllers\CustomerController.java
C:\Users\Kevim Such\git\spring-rest-example\SpringRestExample\src\main\java\com\kevim\examples\Application.java
C:\Users\Kevim Such\git\spring-rest-example\SpringRestExample\src\main\java\com\kevim\model\UserAndCustomerModel.java
C:\Users\Kevim Such\git\spring-rest-example\SpringRestExample\src\main\java\com\kevim\examples\repository\CustomerModelRepository.java
C:\Users\Kevim Such\git\spring-rest-example\SpringRestExample\src\main\java\com\kevim\model\CargoModel.java
C:\Users\Kevim Such\git\spring-rest-example\SpringRestExample\src\main\java\com\kevim\model\UserModel.java
C:\Users\Kevim Such\git\spring-rest-example\SpringRestExample\src\main\java\com\kevim\model\InspectionModel.java
C:\Users\Kevim Such\git\spring-rest-example\SpringRestExample\src\main\java\com\kevim\examples\User.java
C:\Users\Kevim Such\git\spring-rest-example\SpringRestExample\src\main\java\com\kevim\examples\repository\CargoModelRepository.java
C:\Users\Kevim Such\git\spring-rest-example\SpringRestExample\src\main\java\com\kevim\examples\repository\InspectionModelRepository.java
C:\Users\Kevim Such\git\spring-rest-example\SpringRestExample\src\main\java\com\kevim\examples\controllers\StoreController.java
